<?xml version="1.0" encoding="UTF-8"?>
<!DOCTYPE svg PUBLIC "-//W3C//DTD SVG 1.1//EN" "http://www.w3.org/Graphics/SVG/1.1/DTD/svg11.dtd">
<!-- Creator: CorelDRAW -->
<svg xmlns="http://www.w3.org/2000/svg" xml:space="preserve" width="600px" height="600px" style="shape-rendering:geometricPrecision; text-rendering:geometricPrecision; image-rendering:optimizeQuality; fill-rule:evenodd; clip-rule:evenodd"
viewBox="0 0 600 600"
 xmlns:xlink="http://www.w3.org/1999/xlink">
 <defs>
  <style type="text/css">
   <![CDATA[
    .fil0 {fill:white}
   ]]>
  </style>
 </defs>
 <g id="Layer_x0020_1">
  <metadata id="CorelCorpID_0Corel-Layer"/>
  <g id="_164462456">
   <path id="_126893816" class="fil0" d="M300 0c165.656,0 300,134.344 300,300 0,165.656 -134.344,300 -300,300 -165.656,0 -300,-134.344 -300,-300 0,-165.656 134.344,-300 300,-300zm0 19.6416c154.811,0 280.358,125.548 280.358,280.358 0,154.811 -125.548,280.358 -280.358,280.358 -154.811,0 -280.358,-125.548 -280.358,-280.358 0,-154.811 125.548,-280.358 280.358,-280.358z"/>
   <path id="_126893744" class="fil0" d="M232.847 490.474l-89.7768 0 0 -3.1092c-0.0852,-2.814 -0.0792,-5.7216 0,-8.6892l0 -370.274 3.0648 0c2.5836,-0.234 5.4528,-0.1392 8.1372,0l112.523 0 0 87.8724c0.0024,2.1348 0,4.2672 0,6.402l0 33.5532c53.97,-38.82 120.797,-58.338 192.746,-63.6684l3.4416 -0.2556 -0.0072 28.7916c-3.5124,53.0424 -24.816,90.168 -75.144,110.98l0.0444 -0.0216c-10.2468,4.2444 -19.8156,9.0636 -28.7184,14.4252 50.1612,42.0108 88.5696,101.021 115.942,159.431l2.1384 4.5636 -142.369 0 -0.5016 -2.5896c-1.4916,-7.524 -6.6612,-17.7648 -10.4808,-24.2328 -10.5084,-17.7972 -25.2672,-33.228 -41.556,-46.0572 -8.3832,21.2688 -13.5108,44.6784 -15.5352,69.8136l0 3.066 -33.948 0zm199.816 -302.183c-0.186,14.8224 -2.082,30.69 -6.3516,44.232 -5.232,16.6104 -14.4156,31.6416 -29.6928,40.7016 -14.4312,8.5632 -29.4744,16.0524 -43.7484,24.8868 -19.3836,12 -37.482,25.7568 -53.3964,42.1272 -37.2864,38.3556 -57.2628,85.3596 -64.9572,137.302l20.2212 0c1.3056,-11.8392 3.2988,-23.3436 6.0084,-34.4544l0.3876 -1.6308 0.0156 0.0036c2.7624,-11.016 6.2352,-21.6444 10.4388,-31.8348l-0.0096 -0.006 0.4956 -1.1604c1.1544,-2.7504 2.3616,-5.4684 3.6264,-8.1552l1.2588 -2.706 0.0288 0.0192c11.4696,-23.5152 27.1944,-44.3928 47.52,-61.9368l-0.0252 -0.0216 1.8456 -1.53c1.6704,-1.41 3.3708,-2.7948 5.1048,-4.1568 0,-0.0036 0.0036,-0.0036 0.0072,-0.006l2.0808 -1.6428 0.0156 0.0156c1.2144,-0.9312 2.4444,-1.848 3.6876,-2.7564l-0.0348 -0.0288 2.3808 -1.6584c7.2564,-5.1408 15.0024,-9.9192 23.2428,-14.3088 9.7764,-5.2104 20.0424,-9.6096 30.3144,-13.3368 37.1256,-17.538 54.0804,-53.28 56.9244,-92.4648l-0.0024 -17.4432c-5.8344,0.5508 -11.6316,1.2012 -17.3868,1.9512zm-11.4888 1.6464c-57.7548,9.0204 -110.81,28.7184 -154.379,62.4312l0 0.0096 -1.23 0.9624c-2.1672,1.6968 -4.3152,3.4212 -6.4284,5.1876l-1.416 1.1832c-26.5572,22.464 -49.2264,50.5668 -66.8184,85.1412 -18.894,37.1292 -33.8616,89.8824 -34.9176,132.29l0 0.2328c-0.0036,0.054 -0.0036,0.1104 -0.006,0.1644l66.96 0c7.8588,-54.9888 28.9164,-104.761 68.316,-145.29 16.5732,-17.046 35.4012,-31.3896 55.5876,-43.8816 14.3412,-8.8776 29.4372,-16.3992 43.932,-24.9996 5.3364,-3.1656 9.8688,-7.3356 13.6308,-12.2616 5.0076,-6.5496 8.5092,-14.1984 10.9776,-22.032 3.7596,-11.9364 5.4912,-25.9584 5.7912,-39.138zm-167.294 24.7632c-1.8444,1.5924 -3.6612,3.2136 -5.43,4.86 -6.8376,6.3612 -13.6404,13.1256 -19.5252,20.3856l-8.2656 10.206 -1.8552 -13.0092c-5.046,-35.514 -16.812,-77.4684 -43.6032,-102.865 -4.4316,-4.2072 -11.3028,-9.408 -18.1776,-12.966l-1.038 0 0 277.813c5.8596,-20.76 13.6488,-40.998 23.388,-60.1356 19.3992,-38.1216 44.7264,-68.7672 74.5068,-92.8992l0 -31.3896zm0 -14.9232l0 -78.4656 -76.1184 0c1.8888,1.5264 3.6768,3.0876 5.3268,4.6524 25.9872,24.6396 38.8356,62.5704 45.114,97.4724 3.9996,-4.2348 8.1876,-8.31 12.4416,-12.2676 4.2132,-3.9168 8.682,-7.7328 13.236,-11.3916zm80.418 144.498c-20.0544,16.9956 -35.5332,37.5552 -46.6572,61.05 10.0704,7.692 19.5,16.2144 27.9996,25.6248 11.0724,12.2652 23.7096,30.5088 29.2608,46.6092l91.2156 0c-20.9448,-41.4408 -48.1452,-79.4496 -80.55,-112.775 -6.8664,-7.062 -13.956,-13.908 -21.2688,-20.5092zm9.0924 -7.2252c6.9972,6.3708 13.794,12.9624 20.3856,19.746 34.5648,35.5428 63.3432,76.2792 85.1352,120.763l7.812 0c-24.4128,-48.9432 -56.232,-96.3972 -96.792,-133.259 -3.942,-3.5892 -7.9788,-7.08 -12.1104,-10.4508 -1.4976,1.05 -2.9736,2.1156 -4.4304,3.2004z"/>
  </g>
 </g>
</svg>
